<svg class="fe-logo" xmlns="http://www.w3.org/2000/svg" version="1.1" x="0" y="0" viewBox="0 0 466 267" xml:space="preserve" enable-background="new 0 0 466 267">
	<g id="Desktop" stroke="none" stroke-width="1" fill="none" fill-rule="evenodd">
        <g transform="translate(-478.000000, -170.000000)" id="Billboard" fill-rule="nonzero">
            <g>
                <g id="LogoW/Button" transform="translate(438.000000, 141.000000)">
                    <g id="RecoveryResultsLogoBlack" transform="translate(40.000000, 29.000000)">
                        <polygon id="Shape" fill="#52873E" points="272 74 245.817217 48 272 22 200 22 200 74"></polygon>
                        <polygon id="Shape" fill="#60B236" points="66 14 92.1102426 40 66 66 223 66 223 14"></polygon>
                        <polygon id="Shape" fill="#52873E" points="40 0 29.336856 10.663144 30.2668428 13.7173052 22.330251 21.2945839 20.5548217 19.4451783 15.0911493 24.9088507 15.7886394 25.6380449 13.5059445 27.9418758 12.5865258 27.4134742 0 40 13.1889036 53.1889036 13.9392338 49.6486129 22.5521797 57.2258917 21.6221929 61.6221929 40 80 57.2892999 62.7107001 56.4121532 60.1321004 67.2866579 50.6314399 69.7173052 50.2932629 80 40 72.3804491 32.3698811 71.4610304 33.2681638 65.0568032 26.6420079 65.680317 25.680317"></polygon>
                        <g id="Group" transform="translate(12.000000, 10.000000)">
                            <path d="M9.98923077,52.0494444 L16.3248951,22.1983333 L23.6531469,22.1983333 L25.0892308,15.3794444 L17.8032168,15.3794444 C18.0918415,14.2746296 18.3311888,13.3035185 18.5212587,12.4661111 C18.6867059,11.724601 18.9644523,11.0126926 19.3448951,10.355 C19.7079247,9.75463267 20.2458451,9.27952167 20.8865734,8.99333333 C21.8194123,8.60648678 22.8230406,8.41949942 23.8326573,8.44444444 C24.3606294,8.44444444 24.8886014,8.44444444 25.4904895,8.51833333 L27.1377622,8.66611111 L28.7216783,1.34055556 C27.6657343,1.15055556 26.5041958,1.00277778 25.3848951,0.907777778 C24.2655944,0.812777778 23.1462937,0.770555556 22.0481119,0.770555556 C20.5939011,0.75505183 19.141288,0.871642087 17.7081818,1.11888889 L8.92272727,9.92222222 C8.44403263,11.5266667 8.00053613,13.3457407 7.59223776,15.3794444 L3.4634965,15.3794444 L0.971468531,17.8705556 L0.0527972028,22.1666667 L6.08223776,22.1666667 L1.5627972,43.5944444 L9.98923077,52.0494444 Z" id="Shape" fill="#FFFFFF"></path>
                            <path d="M34.3181818,36.4166667 L61.6882517,36.4166667 C62.0703121,34.5043878 62.2753276,32.5609906 62.3006993,30.6111111 C62.3490744,28.1942011 61.9221373,25.7913221 61.0441259,23.5388889 C60.9490909,23.2961111 60.8434965,23.0744444 60.7379021,22.8422222 L54.0432168,16.15 C53.4020077,15.8545733 52.7424387,15.6007151 52.0686014,15.39 C49.7779715,14.6795642 47.3921003,14.323595 44.9937762,14.3344444 C42.0331684,14.2889604 39.1033208,14.9397982 36.4406294,16.2344444 C33.9593817,17.4583924 31.767227,19.1963581 30.0099301,21.3327778 C28.2357823,23.5158458 26.8629234,25.9960894 25.9551049,28.6583333 C24.9967748,31.4177367 24.5112602,34.3190468 24.519021,37.24 C24.4524398,39.655799 24.8429449,42.0624309 25.67,44.3333333 C26.3960318,46.2438668 27.5354609,47.9704039 29.0067832,49.3894444 C30.4920828,50.7825562 32.2709952,51.8249833 34.2125874,52.44 C36.405045,53.1515046 38.6972415,53.5078582 41.0023077,53.4955556 C42.5492678,53.5023305 44.09478,53.4000397 45.6273427,53.1894444 L58.0769231,40.7338889 L50.0517483,40.7338889 C49.6645688,41.3109259 49.245711,41.9090741 48.7951748,42.5283333 C48.3421084,43.1446038 47.8095217,43.6982902 47.2112587,44.175 C46.5712276,44.6736768 45.859146,45.0722958 45.0993706,45.3572222 C44.2392172,45.6806449 43.3255541,45.8382386 42.4067133,45.8216667 C39.6260606,45.8216667 37.5669697,45.1496296 36.2294406,43.8055556 C34.8578143,42.4003045 34.1312389,40.4889672 34.2231469,38.5277778 L34.2231469,37.0711111 C34.2264785,36.8545697 34.2512379,36.6388892 34.2970629,36.4272222 M36.7785315,26.9272222 C37.3186977,25.9830191 38.0108124,25.1342423 38.8270629,24.415 C39.6750376,23.6760743 40.6475182,23.0935154 41.6992308,22.6944444 C42.9182699,22.2428384 44.2113924,22.0244133 45.5111888,22.0505556 C46.7446484,22.0020419 47.9728239,22.2367538 49.1013986,22.7366667 C49.9641934,23.1380921 50.6961925,23.774697 51.2132867,24.5733333 C51.6972231,25.3512168 52.027032,26.2148551 52.1847552,27.1172222 C52.3535115,28.0542897 52.438323,29.0045358 52.4381818,29.9566667 L35.4058042,29.9566667 C35.7858598,28.9117213 36.2557514,27.9016495 36.8102098,26.9377778" id="Shape" fill="#FFFFFF"></path>
                            <path d="M91.4975524,39.7311111 L102.848951,31.065 C105.668322,28.8588889 106.787622,27.4233333 106.787622,25.6077778 C106.787622,23.7922222 105.446573,22.4411111 103.366364,22.4411111 C101.286154,22.4411111 99.7233566,23.655 97.3474825,26.3783333 L91.6665035,21.66 C94.9188112,17.4377778 98.1605594,15.1683333 104.01049,15.1683333 C110.641818,15.1683333 115.192937,19.1055556 115.192937,24.8266667 L115.192937,24.9111111 C115.192937,29.7666667 112.67979,32.3 108.170909,35.5194444 L102.975664,39.1611111 L115.499161,39.1611111 L115.499161,46.0011111 L91.4975524,46.0011111 L91.4975524,39.7311111 Z" id="Shape" fill="#FFFFFF"></path>
                            <path d="M118.888741,30.9911111 L118.888741,30.9066667 C118.888741,22.3355556 124.347972,15.1366667 132.964476,15.1366667 C141.580979,15.1366667 146.955734,22.2405556 146.955734,30.8116667 L146.955734,30.8961111 C146.955734,39.4672222 141.538741,46.6555556 132.869441,46.6555556 C124.20014,46.6555556 118.878182,39.5516667 118.878182,30.9805556 M138.508182,30.9805556 L138.508182,30.8961111 C138.508182,26.0405556 136.259021,22.5361111 132.88,22.5361111 C129.500979,22.5361111 127.336294,25.9561111 127.336294,30.8116667 L127.336294,30.8961111 C127.336294,35.7516667 129.585455,39.2138889 132.964476,39.2138889 C136.343497,39.2138889 138.508182,35.7938889 138.508182,30.9805556" id="Shape" fill="#FFFFFF"></path>
                            <polygon id="Shape" fill="#FFFFFF" points="155.14986 23.3172222 150.039091 24.5311111 148.434056 18.0394444 157.325105 15.5272222 163.428462 15.5272222 163.428462 46.0538889 155.14986 46.0538889"></polygon>
                            <polygon id="Shape" fill="#FFFFFF" points="182.414336 22.8 168.37028 22.8 168.37028 15.7383333 191.727762 15.7383333 191.727762 22.0611111 178.338392 46.0538889 169.067203 46.0538889"></polygon>
                            <path d="M41.033986,84.3494444 L65.0778322,84.3494444 C72.8495804,84.3494444 78.2243357,86.3866667 81.635035,89.7961111 C84.6127972,92.7727778 86.1333566,96.615 86.1333566,101.628889 L86.1333566,101.776667 C86.1333566,109.619444 81.9940559,114.770556 75.6795105,117.451667 L87.8017483,135.111111 L71.6141259,135.111111 L61.3714685,119.721111 L55.1308392,119.721111 L55.1308392,135.111111 L41.033986,135.111111 L41.033986,84.3494444 Z M64.4970629,108.722222 C69.2171329,108.722222 72.0470629,106.4 72.0470629,102.695 L72.0470629,102.547222 C72.0470629,98.4833333 69.0693007,96.4461111 64.4231469,96.4461111 L55.1308392,96.4461111 L55.1308392,108.722222 L64.4970629,108.722222 Z" id="Shape" fill="#3F3F3F"></path>
                            <polygon id="Shape" fill="#3F3F3F" points="93.2504196 84.3494444 134.136573 84.3494444 134.136573 96.2561111 107.199441 96.2561111 107.199441 104.025 131.602308 104.025 131.602308 115.129444 107.199441 115.129444 107.199441 123.183333 134.506154 123.183333 134.506154 135.163889 93.2504196 135.163889"></polygon>
                            <path d="M139.733077,109.904444 L139.733077,109.777778 C139.733077,95 151.063357,83.3888889 166.459021,83.3888889 C176.838951,83.3888889 183.523077,87.7483333 188.021399,93.9444444 L177.461958,102.146111 C174.558112,98.5888889 171.221329,96.1927778 166.353427,96.1927778 C159.236364,96.1927778 154.220629,102.293889 154.220629,109.693333 L154.220629,109.777778 C154.220629,117.398889 159.236364,123.352222 166.353427,123.352222 C171.633147,123.352222 174.800979,120.882222 177.831538,117.177222 L188.390979,124.724444 C183.596993,131.311111 177.134615,136.166667 165.952168,136.166667 C158.951523,136.27961 152.205423,133.544324 147.261549,128.588336 C142.317674,123.632348 139.600385,116.881057 139.733077,109.883333" id="Shape" fill="#3F3F3F"></path>
                            <path d="M191.368741,109.904444 L191.368741,109.777778 C191.368741,95.19 203.131958,83.3888889 218.823287,83.3888889 C234.514615,83.3888889 246.13,95.0738889 246.13,109.672222 L246.13,109.777778 C246.13,124.365556 234.366783,136.166667 218.675455,136.166667 C202.984126,136.166667 191.368741,124.481667 191.368741,109.883333 M231.674126,109.883333 L231.674126,109.777778 C231.674126,102.388889 226.394406,96.0555556 218.675455,96.0555556 C210.956503,96.0555556 205.750699,102.293889 205.750699,109.63 L205.750699,109.777778 C205.750699,117.113889 211.03042,123.5 218.823287,123.5 C226.616154,123.5 231.674126,117.261667 231.674126,109.925556" id="Shape" fill="#3F3F3F"></path>
                            <polygon id="Shape" fill="#3F3F3F" points="246.13 84.3494444 261.821329 84.3494444 273.362797 116.501667 284.988741 84.3494444 300.373846 84.3494444 279.751259 135.522778 266.689231 135.522778"></polygon>
                            <polygon id="Shape" fill="#3F3F3F" points="305.326224 84.3494444 346.212378 84.3494444 346.212378 96.2561111 319.264685 96.2561111 319.264685 104.025 343.667552 104.025 343.667552 115.129444 319.264685 115.129444 319.264685 123.183333 346.571399 123.183333 346.571399 135.163889 305.326224 135.163889"></polygon>
                            <path d="M353.836294,84.3494444 L377.86958,84.3494444 C385.641329,84.3494444 391.016084,86.3866667 394.426783,89.7961111 C397.404545,92.7727778 398.925105,96.615 398.925105,101.628889 L398.925105,101.776667 C398.925105,109.619444 394.785804,114.770556 388.471259,117.451667 L400.604056,135.111111 L384.363636,135.111111 L374.120979,119.721111 L367.88035,119.721111 L367.88035,135.111111 L353.836294,135.111111 L353.836294,84.3494444 Z M377.288811,108.722222 C382.008881,108.722222 384.838811,106.4 384.838811,102.695 L384.838811,102.547222 C384.838811,98.4833333 381.861049,96.4461111 377.214895,96.4461111 L367.922587,96.4461111 L367.922587,108.722222 L377.288811,108.722222 Z" id="Shape" fill="#3F3F3F"></path>
                            <polygon id="Shape" fill="#3F3F3F" points="418.977483 116.142778 399.59035 84.3494444 415.640699 84.3494444 426.094545 102.853333 436.622308 84.3494444 452.387552 84.3494444 433.074336 115.921111 433.074336 135.163889 418.977483 135.163889"></polygon>
                            <path d="M41.1818182,148.928333 L71.1072727,148.928333 C80.8008392,148.928333 87.4955245,151.461667 91.7615385,155.715556 C95.4784615,159.431111 97.3791608,164.223333 97.3791608,170.493333 L97.3791608,170.672778 C97.3791608,180.447222 92.2155944,186.875556 84.3382517,190.232222 L99.4593706,212.325 L79.2591608,212.325 L66.5244755,193.113889 L58.6999301,193.113889 L58.6999301,212.303889 L41.1818182,212.303889 L41.1818182,148.928333 Z M70.4314685,179.349444 C76.3130769,179.349444 79.8504895,176.457222 79.8504895,171.833889 L79.8504895,171.654444 C79.8504895,166.587778 76.1335664,164.054444 70.346993,164.054444 L58.7316084,164.054444 L58.7316084,179.349444 L70.4314685,179.349444 Z" id="Shape" fill="#3F3F3F"></path>
                            <polygon id="Shape" fill="#3F3F3F" points="106.249091 148.928333 157.240629 148.928333 157.240629 163.78 123.64049 163.78 123.64049 173.47 154.072797 173.47 154.072797 187.318889 123.64049 187.318889 123.64049 197.367778 157.694685 197.367778 157.694685 212.303889 106.249091 212.303889"></polygon>
                            <path d="M161.95014,202.888333 L171.728182,191.213889 C178.063846,196.196111 184.948601,198.813889 192.287413,198.813889 C197.091958,198.813889 199.626224,197.188333 199.626224,194.465 L199.626224,194.285556 C199.626224,191.572778 197.514336,190.211111 188.845035,188.131667 C175.35007,185.049444 164.938462,181.249444 164.938462,168.308333 L164.938462,168.128889 C164.938462,156.359444 174.262448,147.851667 189.478601,147.851667 C200.25979,147.851667 208.675664,150.754444 215.56042,156.296111 L206.774965,168.698889 C201.64603,164.821179 195.441277,162.627082 189.013986,162.418333 C184.79021,162.418333 182.678322,164.138889 182.678322,166.492778 L182.678322,166.672222 C182.678322,169.564444 184.853566,170.831111 193.723497,172.826111 C208.211049,175.992778 217.271049,180.700556 217.271049,192.565 L217.271049,192.744444 C217.271049,205.685556 207.038951,213.391111 191.643287,213.391111 C180.408042,213.391111 169.816923,209.855 161.93958,202.888333" id="Shape" fill="#3F3F3F"></path>
                            <path d="M225.074476,184.511111 L225.074476,148.928333 L242.867133,148.928333 L242.867133,184.152222 C242.867133,193.293333 247.481608,197.642222 254.545874,197.642222 C261.61014,197.642222 266.31965,193.472778 266.31965,184.606111 L266.31965,148.928333 L284.048951,148.928333 L284.048951,184.057222 C284.048951,204.429444 272.35965,213.475556 254.345245,213.475556 C236.330839,213.475556 225.095594,204.334444 225.095594,184.500556" id="Shape" fill="#3F3F3F"></path>
                            <polygon id="Shape" fill="#3F3F3F" points="294.460559 148.928333 312.031469 148.928333 312.031469 196.913889 342.727762 196.913889 342.727762 212.303889 294.460559 212.303889"></polygon>
                            <polygon id="Shape" fill="#3F3F3F" points="356.771818 164.318333 337.838741 164.318333 337.838741 148.928333 393.36028 148.928333 393.36028 164.318333 374.342727 164.318333 374.342727 212.303889 356.771818 212.303889"></polygon>
                            <path d="M394.923077,202.888333 L404.701119,191.213889 C411.036783,196.196111 417.921538,198.813889 425.26035,198.813889 C430.064895,198.813889 432.599161,197.188333 432.599161,194.465 L432.599161,194.285556 C432.599161,191.572778 430.487273,190.211111 421.817972,188.131667 C408.323007,185.049444 397.911399,181.249444 397.911399,168.308333 L397.911399,168.128889 C397.911399,156.359444 407.235385,147.851667 422.451538,147.851667 C433.232727,147.851667 441.648601,150.754444 448.533357,156.296111 L439.747902,168.698889 C434.618068,164.83455 428.417652,162.651745 421.997483,162.45 C417.773706,162.45 415.661818,164.170556 415.661818,166.524444 L415.661818,166.703889 C415.661818,169.596111 417.837063,170.862778 426.706993,172.857778 C441.194545,176.024444 450.254545,180.732222 450.254545,192.596667 L450.254545,192.776111 C450.254545,205.717222 440.022448,213.422778 424.626783,213.422778 C413.391538,213.422778 402.80042,209.886667 394.923077,202.92" id="Shape" fill="#3F3F3F"></path>
                            <rect id="Rectangle-path" fill="#60B236" x="41.6886713" y="232.021667" width="407.668322" height="33.7566667"></rect>
                            <polygon id="Shape" fill="#467035" points="188.306503 56.4933333 188.306503 64.6422222 211.125455 56.4933333"></polygon>
                            <polygon id="Shape" fill="#FFFFFF" points="51.2555245 243.516667 53.2618182 243.516667 57.8868531 249.596667 57.8868531 243.516667 60.040979 243.516667 60.040979 253.386111 58.1930769 253.386111 53.4096503 247.116111 53.4096503 253.386111 51.2555245 253.386111"></polygon>
                            <path d="M61.9733566,248.477778 L61.9733566,248.477778 C62.2678528,245.802506 64.5289874,243.777284 67.2213986,243.777284 C69.9138098,243.777284 72.1749444,245.802506 72.4694406,248.477778 L72.4694406,248.477778 C72.1749444,251.15305 69.9138098,253.178272 67.2213986,253.178272 C64.5289874,253.178272 62.2678528,251.15305 61.9733566,248.477778 M70.1991608,248.477778 L70.1991608,248.477778 C70.2277615,247.66642 69.925936,246.87816 69.3627024,246.29325 C68.7994688,245.708339 68.0229962,245.3768 67.2108392,245.374444 C66.4043115,245.370942 65.6313591,245.696954 65.0711085,246.276929 C64.510858,246.856904 64.2119434,247.640495 64.2436364,248.446111 L64.2436364,248.446111 C64.2150357,249.257469 64.5168612,250.045729 65.0800948,250.630639 C65.6433284,251.21555 66.419801,251.547089 67.231958,251.549444 C68.0384857,251.552947 68.8114381,251.226935 69.3716887,250.64696 C69.9319392,250.066985 70.2308538,249.283394 70.1991608,248.477778" id="Shape" fill="#FFFFFF"></path>
                            <polygon id="Shape" fill="#FFFFFF" points="72.9234965 243.516667 75.3204895 243.516667 77.896993 250.472778 80.4840559 243.516667 82.8282517 243.516667 78.8367832 253.46 76.914965 253.46"></polygon>
                            <polygon id="Shape" fill="#FFFFFF" points="84.3488112 243.516667 91.8037762 243.516667 91.8037762 245.448333 86.5134965 245.448333 86.5134965 247.453889 91.1596503 247.453889 91.1596503 249.385556 86.5134965 249.385556 86.5134965 251.454444 91.8671329 251.454444 91.8671329 253.386111 84.3488112 253.386111"></polygon>
                            <polygon id="Shape" fill="#FFFFFF" points="93.8100699 243.516667 96.1437063 243.516667 98.7413287 247.696667 101.338951 243.516667 103.683147 243.516667 103.683147 253.386111 101.529021 253.386111 101.529021 246.947222 98.7413287 251.158889 98.6885315 251.158889 95.9325175 246.989444 95.9325175 253.386111 93.8100699 253.386111"></polygon>
                            <path d="M106.059021,243.516667 L110.641818,243.516667 C111.582854,243.455912 112.509537,243.77102 113.218322,244.392778 C113.667658,244.833675 113.912601,245.441982 113.894126,246.071111 L113.894126,246.071111 C113.909649,246.967675 113.402753,247.791594 112.595315,248.182222 C113.708854,248.451686 114.480383,249.465322 114.443217,250.61 L114.443217,250.61 C114.443217,252.415 112.975455,253.312222 110.747413,253.312222 L106.048462,253.312222 L106.059021,243.516667 Z M111.750559,246.440556 C111.750559,245.796667 111.243706,245.385 110.325035,245.385 L108.213147,245.385 L108.213147,247.496111 L110.219441,247.496111 C111.18035,247.496111 111.782238,247.19 111.782238,246.440556 L111.750559,246.440556 Z M110.694615,249.322222 L108.181469,249.322222 L108.181469,251.496667 L110.757972,251.496667 C111.718881,251.496667 112.29965,251.158889 112.29965,250.441111 L112.29965,250.441111 C112.29965,249.776111 111.803357,249.385556 110.694615,249.385556 L110.694615,249.322222 Z" id="Shape" fill="#FFFFFF"></path>
                            <polygon id="Shape" fill="#FFFFFF" points="116.238322 243.516667 123.693287 243.516667 123.693287 245.448333 118.403007 245.448333 118.403007 247.453889 123.05972 247.453889 123.05972 249.385556 118.403007 249.385556 118.403007 251.454444 123.767203 251.454444 123.767203 253.386111 116.238322 253.386111"></polygon>
                            <path d="M125.657343,243.516667 L130.176783,243.516667 C131.233465,243.450018 132.272492,243.811451 133.05951,244.519444 C133.634216,245.127777 133.93883,245.94232 133.904266,246.778333 L133.904266,246.778333 C133.971964,248.158182 133.106695,249.412359 131.792378,249.839444 L134.19993,253.365 L131.665664,253.365 L129.553776,250.198333 L127.874825,250.198333 L127.874825,253.365 L125.657343,253.365 L125.657343,243.516667 Z M130.028951,248.308889 C131.084895,248.308889 131.697343,247.749444 131.697343,246.915556 L131.697343,246.915556 C131.697343,245.986667 131.042657,245.501111 129.986713,245.501111 L127.874825,245.501111 L127.874825,248.340556 L130.028951,248.308889 Z" id="Shape" fill="#FFFFFF"></path>
                            <path d="M141.74993,251.665556 L145.033916,248.973889 C146.258811,247.918333 146.744545,247.422222 146.744545,246.609444 C146.767539,246.255715 146.63471,245.909611 146.380939,245.662021 C146.127168,245.414432 145.777812,245.290097 145.424615,245.321667 C144.664336,245.321667 144.136364,245.743889 143.407762,246.651667 L141.887203,245.427222 C142.646405,244.120107 144.061114,243.333996 145.572448,243.379444 C147.620979,243.379444 148.972587,244.582778 148.972587,246.43 L148.972587,246.43 C148.972587,248.076667 148.127832,248.9 146.374965,250.251111 L144.76993,251.496667 L149.067622,251.496667 L149.067622,253.375556 L141.76049,253.375556 L141.74993,251.665556 Z" id="Shape" fill="#FFFFFF"></path>
                            <path d="M150.482587,250.683889 L150.482587,250.683889 C150.408984,249.617538 151.050847,248.631414 152.055944,248.266667 C151.27384,247.854568 150.788558,247.039266 150.799371,246.155556 L150.799371,246.155556 C150.799371,244.646111 152.182657,243.453333 154.273427,243.453333 C156.364196,243.453333 157.747483,244.635556 157.747483,246.155556 L157.747483,246.155556 C157.758296,247.039266 157.273013,247.854568 156.490909,248.266667 C157.459094,248.627191 158.096937,249.556156 158.085385,250.588889 L158.085385,250.588889 C158.085385,252.425556 156.459231,253.491667 154.273427,253.491667 C152.087622,253.491667 150.461469,252.362222 150.461469,250.641667 M155.973497,250.472778 L155.973497,250.472778 C155.973497,249.712778 155.255455,249.258889 154.262867,249.258889 C153.27028,249.258889 152.552238,249.712778 152.552238,250.472778 L152.552238,250.472778 C152.552238,251.148333 153.185804,251.697222 154.262867,251.697222 C155.33993,251.697222 155.973497,251.158889 155.973497,250.472778 M155.677832,246.313889 L155.677832,246.313889 C155.654483,245.968181 155.489315,245.647469 155.221401,245.42762 C154.953486,245.207772 154.606624,245.108315 154.262867,245.152778 C153.375874,245.152778 152.847902,245.691111 152.847902,246.292778 L152.847902,246.292778 C152.952773,246.990139 153.552131,247.505942 154.257587,247.505942 C154.963044,247.505942 155.562402,246.990139 155.667273,246.292778" id="Shape" fill="#FFFFFF"></path>
                            <rect id="Rectangle-path" fill="#FFFFFF" x="159.447552" y="247.992222" width="4.35048951" height="2.05833333"></rect>
                            <path d="M165.191888,251.665556 L168.475874,248.973889 C169.700769,247.918333 170.186503,247.422222 170.186503,246.609444 C170.209497,246.255715 170.076668,245.909611 169.822897,245.662021 C169.569126,245.414432 169.21977,245.290097 168.866573,245.321667 C168.106294,245.321667 167.578322,245.743889 166.84972,246.651667 L165.329161,245.427222 C166.088363,244.120107 167.503072,243.333996 169.014406,243.379444 C171.062937,243.379444 172.414545,244.582778 172.414545,246.43 L172.414545,246.43 C172.414545,248.076667 171.56979,248.9 169.816923,250.251111 L168.211888,251.496667 L172.50958,251.496667 L172.50958,253.375556 L165.202448,253.375556 L165.191888,251.665556 Z" id="Shape" fill="#FFFFFF"></path>
                            <path d="M179.616084,249.343333 C179.051242,249.803989 178.338332,250.044039 177.60979,250.018889 C175.497902,250.018889 174.082937,248.836667 174.082937,246.852222 L174.082937,246.852222 C174.088503,245.88233 174.498348,244.958675 175.213833,244.303556 C175.929317,243.648437 176.885646,243.321183 177.852657,243.400556 C178.912901,243.309956 179.958288,243.696994 180.703706,244.456111 C181.594383,245.48194 182.018889,246.831449 181.875804,248.182222 L181.875804,248.182222 C181.875804,251.348889 180.365804,253.565556 177.556993,253.565556 C176.367959,253.593357 175.211554,253.175397 174.315245,252.393889 L175.455664,250.747222 C176.030774,251.280346 176.783286,251.58124 177.567552,251.591667 C179.066993,251.591667 179.489371,250.198333 179.573846,249.353889 M179.573846,246.757222 L179.573846,246.757222 C179.568185,246.318868 179.376034,245.90367 179.045491,245.615558 C178.714948,245.327447 178.2773,245.193693 177.842098,245.247778 C177.41363,245.192598 176.982312,245.326172 176.660097,245.613831 C176.337881,245.90149 176.156542,246.314867 176.163147,246.746667 L176.163147,246.746667 C176.163147,247.622778 176.807273,248.224444 177.884336,248.224444 C178.308979,248.282177 178.737916,248.1542 179.061434,247.873246 C179.384953,247.592293 179.571677,247.185612 179.573846,246.757222" id="Shape" fill="#FFFFFF"></path>
                            <rect id="Rectangle-path" fill="#FFFFFF" x="188.486014" y="242.133889" width="1.68951049" height="13.0572222"></rect>
                            <path d="M197.218671,243.516667 L201.072867,243.516667 C202.437091,243.416902 203.781295,243.889289 204.782947,244.820483 C205.784599,245.751676 206.353298,247.057634 206.352587,248.425 L206.352587,248.425 C206.355797,249.795849 205.789019,251.106391 204.787814,252.043174 C203.786609,252.979958 202.441015,253.458737 201.072867,253.365 L197.218671,253.365 L197.218671,243.516667 Z M199.393916,245.48 L199.393916,251.433333 L201.072867,251.433333 C201.870188,251.47905 202.649497,251.184599 203.217226,250.623116 C203.784956,250.061633 204.087833,249.285804 204.050629,248.488333 L204.050629,248.488333 C204.090386,247.687349 203.789446,246.90691 203.222159,246.339832 C202.654872,245.772754 201.874147,245.471924 201.072867,245.511667 L199.393916,245.48 Z" id="Shape" fill="#FFFFFF"></path>
                            <path d="M210.935385,243.442778 L212.941678,243.442778 L217.165455,253.386111 L214.895175,253.386111 L213.987063,251.169444 L209.763287,251.169444 L208.855175,253.386111 L206.637692,253.386111 L210.935385,243.442778 Z M213.216224,249.248333 L211.906853,246.081667 L210.597483,249.248333 L213.216224,249.248333 Z" id="Shape" fill="#FFFFFF"></path>
                            <polygon id="Shape" fill="#FFFFFF" points="218.696573 243.516667 220.871818 243.516667 220.871818 251.412222 225.803077 251.412222 225.803077 253.386111 218.696573 253.386111"></polygon>
                            <polygon id="Shape" fill="#FFFFFF" points="227.429231 243.516667 229.604476 243.516667 229.604476 251.412222 234.535734 251.412222 234.535734 253.386111 227.429231 253.386111"></polygon>
                            <path d="M239.551469,243.442778 L241.557762,243.442778 L245.781538,253.386111 L243.511259,253.386111 L242.603147,251.169444 L238.379371,251.169444 L237.471259,253.386111 L235.253776,253.386111 L239.551469,243.442778 Z M241.832308,249.248333 L240.522937,246.081667 L239.213566,249.248333 L241.832308,249.248333 Z" id="Shape" fill="#FFFFFF"></path>
                            <path d="M246.49958,251.950556 L247.787832,250.409444 C248.591949,251.153536 249.638619,251.58105 250.733916,251.612778 C251.620909,251.612778 252.159441,251.264444 252.159441,250.683889 L252.159441,250.683889 C252.159441,250.135 251.821538,249.85 250.174266,249.427778 C248.189091,248.921111 246.900839,248.372222 246.900839,246.408889 L246.900839,246.408889 C246.900839,244.614444 248.336923,243.432222 250.353776,243.432222 C251.687688,243.409996 252.98746,243.854295 254.028462,244.688333 L252.898601,246.324444 C252.160908,245.749334 251.266404,245.410798 250.332657,245.353333 C249.498462,245.353333 249.065524,245.733333 249.065524,246.218889 L249.065524,246.218889 C249.065524,246.862778 249.487902,247.084444 251.177413,247.517222 C253.183706,248.045 254.345245,248.762778 254.345245,250.483333 L254.345245,250.483333 C254.345245,252.446667 252.845804,253.544444 250.723357,253.544444 C249.168789,253.552546 247.665501,252.989021 246.49958,251.961111" id="Shape" fill="#FFFFFF"></path>
                            <path d="M255.390629,254.79 C256.362098,254.695 256.847832,254.198889 256.773916,253.396667 L255.897483,253.396667 L255.897483,251.137778 L258.188881,251.137778 L258.188881,253.037778 C258.299506,253.760201 258.061868,254.492369 257.548027,255.012259 C257.034186,255.532149 256.304671,255.778522 255.580699,255.676667 L255.390629,254.79 Z" id="Shape" fill="#FFFFFF"></path>
                            <polygon id="Shape" fill="#FFFFFF" points="266.773706 245.522222 263.774825 245.522222 263.774825 243.516667 271.958392 243.516667 271.958392 245.522222 268.948951 245.522222 268.948951 253.386111 266.773706 253.386111"></polygon>
                            <polygon id="Shape" fill="#FFFFFF" points="282.19049 243.516667 278.885385 248.340556 282.327762 253.386111 279.782937 253.386111 277.576014 250.008333 275.347972 253.386111 272.877063 253.386111 276.319441 248.372222 273.014336 243.516667 275.559161 243.516667 277.618252 246.715 279.71958 243.516667"></polygon>
                            <rect id="Rectangle-path" fill="#FFFFFF" x="288.621189" y="242.133889" width="1.68951049" height="13.0572222"></rect>
                            <polygon id="Shape" fill="#FFFFFF" points="299.655804 245.522222 296.656923 245.522222 296.656923 243.516667 304.82993 243.516667 304.82993 245.522222 301.831049 245.522222 301.831049 253.386111 299.655804 253.386111"></polygon>
                            <polygon id="Shape" fill="#FFFFFF" points="306.498322 243.516667 308.673566 243.516667 308.673566 247.422222 312.675594 247.422222 312.675594 243.516667 314.850839 243.516667 314.850839 253.386111 312.675594 253.386111 312.675594 249.427778 308.673566 249.427778 308.673566 253.386111 306.498322 253.386111"></polygon>
                            <polygon id="Shape" fill="#FFFFFF" points="317.226713 243.516667 324.671119 243.516667 324.671119 245.448333 319.380839 245.448333 319.380839 247.453889 324.037552 247.453889 324.037552 249.385556 319.380839 249.385556 319.380839 251.454444 324.745035 251.454444 324.745035 253.386111 317.226713 253.386111"></polygon>
                            <path d="M330.911748,243.516667 L335.431189,243.516667 C336.487871,243.450018 337.526897,243.811451 338.313916,244.519444 C338.888622,245.127777 339.193236,245.94232 339.158671,246.778333 L339.158671,246.778333 C339.226369,248.158182 338.361101,249.412359 337.046783,249.839444 L339.464895,253.365 L336.930629,253.365 L334.818741,250.198333 L333.108112,250.198333 L333.108112,253.365 L330.932867,253.365 L330.911748,243.516667 Z M335.283357,248.308889 C336.339301,248.308889 336.951748,247.749444 336.951748,246.915556 L336.951748,246.915556 C336.951748,245.986667 336.297063,245.501111 335.241119,245.501111 L333.129231,245.501111 L333.129231,248.340556 L335.283357,248.308889 Z" id="Shape" fill="#FFFFFF"></path>
                            <rect id="Rectangle-path" fill="#FFFFFF" x="341.217762" y="243.516667" width="2.17524476" height="9.86944444"></rect>
                            <polygon id="Shape" fill="#FFFFFF" points="348.155315 245.522222 345.156434 245.522222 345.156434 243.516667 353.329441 243.516667 353.329441 245.522222 350.330559 245.522222 350.330559 253.386111 348.155315 253.386111"></polygon>
                            <polygon id="Shape" fill="#FFFFFF" points="354.564895 251.739444 359.992448 245.416667 354.733846 245.416667 354.733846 243.516667 362.790699 243.516667 362.790699 245.163333 357.363147 251.486111 362.790699 251.486111 362.790699 253.386111 354.564895 253.386111"></polygon>
                            <path d="M370.763077,248.477778 L370.763077,248.477778 C370.736579,247.107488 371.27238,245.786085 372.24584,244.820959 C373.2193,243.855834 374.545555,243.331123 375.916084,243.368889 C377.372554,243.295398 378.790827,243.848667 379.812517,244.888889 L378.429231,246.482778 C377.767424,245.793279 376.861029,245.391427 375.905524,245.363889 C375.114523,245.380001 374.363789,245.715739 373.824601,246.294507 C373.285412,246.873275 373.003765,247.6457 373.043916,248.435556 L373.043916,248.435556 C372.997881,249.229968 373.276565,250.009009 373.816087,250.594106 C374.35561,251.179203 375.109707,251.520184 375.905524,251.538889 C376.895254,251.529813 377.836488,251.109091 378.503147,250.377778 L379.886434,251.771111 C378.880227,252.94775 377.389389,253.597563 375.842168,253.533889 C374.489094,253.557067 373.184759,253.029244 372.228847,252.071693 C371.272935,251.114142 370.747634,249.809192 370.773636,248.456667" id="Shape" fill="#FFFFFF"></path>
                            <path d="M384.997203,243.442778 L387.003497,243.442778 L391.227273,253.386111 L388.956993,253.386111 L388.048881,251.169444 L383.825105,251.169444 L382.916993,253.386111 L380.69951,253.386111 L384.997203,243.442778 Z M387.288601,249.248333 L385.979231,246.081667 L384.66986,249.248333 L387.288601,249.248333 Z" id="Shape" fill="#FFFFFF"></path>
                            <path d="M392.758392,243.516667 L397.277832,243.516667 C398.334514,243.450018 399.373541,243.811451 400.160559,244.519444 C400.735265,245.127777 401.039879,245.94232 401.005315,246.778333 L401.005315,246.778333 C401.073013,248.158182 400.207744,249.412359 398.893427,249.839444 L401.311538,253.365 L398.777273,253.365 L396.665385,250.198333 L394.923077,250.198333 L394.923077,253.365 L392.747832,253.365 L392.758392,243.516667 Z M397.13,248.308889 C398.185944,248.308889 398.798392,247.749444 398.798392,246.915556 L398.798392,246.915556 C398.798392,245.986667 398.154266,245.501111 397.087762,245.501111 L394.975874,245.501111 L394.975874,248.340556 L397.13,248.308889 Z" id="Shape" fill="#FFFFFF"></path>
                            <polygon id="Shape" fill="#FFFFFF" points="402.958811 243.516667 405.134056 243.516667 405.134056 251.412222 410.054755 251.412222 410.054755 253.386111 402.958811 253.386111"></polygon>
                            <polygon id="Shape" fill="#FFFFFF" points="412.589021 245.522222 409.57958 245.522222 409.57958 243.516667 417.763147 243.516667 417.763147 245.522222 414.753706 245.522222 414.753706 253.386111 412.589021 253.386111"></polygon>
                            <path d="M418.565664,248.477778 L418.565664,248.477778 C418.86016,245.802506 421.121295,243.777284 423.813706,243.777284 C426.506117,243.777284 428.767252,245.802506 429.061748,248.477778 L429.061748,248.477778 C428.767252,251.15305 426.506117,253.178272 423.813706,253.178272 C421.121295,253.178272 418.86016,251.15305 418.565664,248.477778 M426.791469,248.477778 L426.791469,248.477778 C426.820069,247.66642 426.518244,246.87816 425.95501,246.29325 C425.391777,245.708339 424.615304,245.3768 423.803147,245.374444 C422.996619,245.370942 422.223667,245.696954 421.663416,246.276929 C421.103166,246.856904 420.804251,247.640495 420.835944,248.446111 L420.835944,248.446111 C420.807343,249.257469 421.109169,250.045729 421.672402,250.630639 C422.235636,251.21555 423.012109,251.547089 423.824266,251.549444 C424.630793,251.552947 425.403746,251.226935 425.963996,250.64696 C426.524247,250.066985 426.823161,249.283394 426.791469,248.477778" id="Shape" fill="#FFFFFF"></path>
                            <polygon id="Shape" fill="#FFFFFF" points="431.004685 243.516667 433.00042 243.516667 437.636014 249.596667 437.636014 243.516667 439.77958 243.516667 439.77958 253.386111 437.931678 253.386111 433.148252 247.116111 433.148252 253.386111 431.004685 253.386111"></polygon>
                            <rect id="Rectangle-path" fill="#FFFFFF" x="364.152867" y="248.171667" width="4.22377622" height="2.11111111"></rect>
                        </g>
                    </g>
                </g>
            </g>
        </g>
    </g></svg>


