<?xml version="1.0" encoding="utf-8"?>
<!-- Generator: Adobe Illustrator 21.0.0, SVG Export Plug-In . SVG Version: 6.00 Build 0)  -->
<svg version="1.1" id="Isolation_Mode" xmlns="http://www.w3.org/2000/svg" xmlns:xlink="http://www.w3.org/1999/xlink" x="0px"
	 y="0px" viewBox="0 0 26.6 26.8" style="enable-background:new 0 0 26.6 26.8;" xml:space="preserve">
<style type="text/css">
	.st0{fill:#475A7C;}
</style>
<g>
	<g>
		<path class="st0" d="M16.1,0C10.3,0,5.6,4.7,5.6,10.5c0,2.5,0.8,4.7,2.3,6.5l-7.3,6.8c-0.7,0.7-0.8,1.8-0.1,2.5
			c0.3,0.4,0.8,0.6,1.3,0.6c0.4,0,0.9-0.2,1.2-0.5l7.5-7c1.6,1,3.6,1.6,5.7,1.6c5.8,0,10.5-4.7,10.5-10.5C26.6,4.7,21.9,0,16.1,0z
			 M16.1,17.6c-3.9,0-7-3.2-7-7c0-3.9,3.2-7,7-7c3.9,0,7,3.2,7,7C23.1,14.4,20,17.6,16.1,17.6z"/>
	</g>
</g>
</svg>
