{
    "key": "group_5845e0e0070a5",
    "title": "Section Header",
    "fields": [
        {
            "key": "field_5845dc26aab99",
            "label": "Optional Header",
            "name": "optional_header",
            "type": "checkbox",
            "instructions": "If checked, this add's a separate Header before the Module",
            "required": 0,
            "conditional_logic": 0,
            "wrapper": {
                "width": "20",
                "class": "",
                "id": ""
            },
            "choices": {
                "true": "True"
            },
            "allow_custom": 0,
            "save_custom": 0,
            "default_value": [],
            "layout": "horizontal",
            "toggle": 0,
            "return_format": "value"
        },
        {
            "key": "field_5845dc1aaab98",
            "label": "Header Text",
            "name": "optional_header_text",
            "type": "text",
            "instructions": "",
            "required": 0,
            "conditional_logic": [
                [
                    {
                        "field": "field_5845dc26aab99",
                        "operator": "==",
                        "value": "true"
                    }
                ]
            ],
            "wrapper": {
                "width": "80",
                "class": "",
                "id": ""
            },
            "default_value": "",
            "placeholder": "",
            "prepend": "",
            "append": "",
            "maxlength": ""
        }
    ],
    "location": [
        [
            {
                "param": "post_status",
                "operator": "==",
                "value": "acf-disabled"
            }
        ]
    ],
    "menu_order": 0,
    "position": "normal",
    "style": "default",
    "label_placement": "top",
    "instruction_placement": "label",
    "hide_on_screen": "",
    "active": 1,
    "description": "",
    "modified": 1489163355
}