{
    "key": "group_582a33c4cd728",
    "title": "Button",
    "fields": [
        {
            "key": "field_582a342a29e8f",
            "label": "Button Text",
            "name": "button_text",
            "type": "text",
            "instructions": "",
            "required": 0,
            "conditional_logic": 0,
            "wrapper": {
                "width": "40",
                "class": "",
                "id": ""
            },
            "default_value": "",
            "maxlength": "",
            "placeholder": "",
            "prepend": "",
            "append": ""
        },
        {
            "key": "field_582a346529e90",
            "label": "Button Target Select",
            "name": "button_target_select",
            "type": "select",
            "instructions": "Select URL or Page (internal)",
            "required": 0,
            "conditional_logic": 0,
            "wrapper": {
                "width": "30",
                "class": "",
                "id": ""
            },
            "choices": {
                "#": "None",
                "external": "External URL",
                "page": "Page",
                "modal": "Modal"
            },
            "default_value": [
                "#"
            ],
            "allow_null": 0,
            "multiple": 0,
            "ui": 0,
            "ajax": 0,
            "return_format": "value",
            "placeholder": ""
        },
        {
            "key": "field_582a349c29e91",
            "label": "Button Target Page",
            "name": "button_target",
            "type": "page_link",
            "instructions": "",
            "required": 0,
            "conditional_logic": [
                [
                    {
                        "field": "field_582a346529e90",
                        "operator": "==",
                        "value": "page"
                    }
                ]
            ],
            "wrapper": {
                "width": "30",
                "class": "",
                "id": ""
            },
            "post_type": [],
            "taxonomy": [],
            "allow_null": 1,
            "multiple": 0,
            "allow_archives": 1
        },
        {
            "key": "field_582a34ce29e92",
            "label": "Button Target External",
            "name": "button_target",
            "type": "url",
            "instructions": "",
            "required": 0,
            "conditional_logic": [
                [
                    {
                        "field": "field_582a346529e90",
                        "operator": "==",
                        "value": "external"
                    }
                ]
            ],
            "wrapper": {
                "width": "30",
                "class": "",
                "id": ""
            },
            "default_value": "",
            "placeholder": ""
        },
        {
            "key": "field_594047324df11",
            "label": "Modal Target",
            "name": "modal_target",
            "type": "text",
            "instructions": "Type the name of the ID exactly as you gave it or will give it to your Modal.",
            "required": 1,
            "conditional_logic": [
                [
                    {
                        "field": "field_582a346529e90",
                        "operator": "==",
                        "value": "modal"
                    }
                ]
            ],
            "wrapper": {
                "width": "30",
                "class": "",
                "id": ""
            },
            "default_value": "",
            "placeholder": "my_modal",
            "prepend": "",
            "append": "",
            "maxlength": ""
        }
    ],
    "location": [
        [
            {
                "param": "post_status",
                "operator": "==",
                "value": "acf-disabled"
            }
        ]
    ],
    "menu_order": 0,
    "position": "normal",
    "style": "default",
    "label_placement": "top",
    "instruction_placement": "label",
    "hide_on_screen": "",
    "active": 1,
    "description": "",
    "modified": 1497393406
}